<?xml version="1.0" encoding="UTF-8" standalone="no"?>
<!-- Created with Inkscape (http://www.inkscape.org/) -->

<svg
   xmlns:dc="http://purl.org/dc/elements/1.1/"
   xmlns:cc="http://creativecommons.org/ns#"
   xmlns:rdf="http://www.w3.org/1999/02/22-rdf-syntax-ns#"
   xmlns:svg="http://www.w3.org/2000/svg"
   xmlns="http://www.w3.org/2000/svg"
   xmlns:sodipodi="http://sodipodi.sourceforge.net/DTD/sodipodi-0.dtd"
   xmlns:inkscape="http://www.inkscape.org/namespaces/inkscape"
   width="210mm"
   height="297mm"
   id="svg2"
   version="1.1"
   inkscape:version="0.48.2 r9819"
   sodipodi:docname="grid-33-66.svg">
  <defs
     id="defs4" />
  <sodipodi:namedview
     id="base"
     pagecolor="#ffffff"
     bordercolor="#666666"
     borderopacity="1.0"
     inkscape:pageopacity="0.0"
     inkscape:pageshadow="2"
     inkscape:zoom="4.5333334"
     inkscape:cx="84.999513"
     inkscape:cy="999.3599"
     inkscape:document-units="px"
     inkscape:current-layer="layer1"
     showgrid="false"
     inkscape:snap-global="false"
     inkscape:window-width="1024"
     inkscape:window-height="528"
     inkscape:window-x="0"
     inkscape:window-y="0"
     inkscape:window-maximized="0">
    <inkscape:grid
       type="xygrid"
       id="grid2987" />
  </sodipodi:namedview>
  <metadata
     id="metadata7">
    <rdf:RDF>
      <cc:Work
         rdf:about="">
        <dc:format>image/svg+xml</dc:format>
        <dc:type
           rdf:resource="http://purl.org/dc/dcmitype/StillImage" />
        <dc:title></dc:title>
      </cc:Work>
    </rdf:RDF>
  </metadata>
  <g
     inkscape:label="Ebene 1"
     inkscape:groupmode="layer"
     id="layer1">
    <rect
       style="fill:none;stroke:#000000;stroke-width:1.88585877"
       id="rect2985"
       width="148.11414"
       height="148.11414"
       x="-173.55833"
       y="22.364302"
       rx="4.6342578"
       ry="6.4306417"
       transform="scale(-1,1)" />
    <rect
       style="fill:#999999;stroke:none"
       id="rect2989"
       width="45.181999"
       height="139"
       x="-168.99904"
       y="26.92137"
       rx="3.3998234"
       ry="5.1481481"
       inkscape:tile-cx="35.5035"
       inkscape:tile-cy="97.358679"
       inkscape:tile-w="11"
       inkscape:tile-h="138"
       inkscape:tile-x0="30.0035"
       inkscape:tile-y0="28.358679"
       transform="scale(-1,1)" />
    <rect
       inkscape:tile-y0="28.358679"
       inkscape:tile-x0="30.0035"
       ry="5.1481481"
       rx="5.1648903"
       y="26.92137"
       x="-122.08994"
       height="139"
       width="92.091003"
       id="use3023"
       style="fill:#999999;stroke:none"
       transform="scale(-1,1)" />
  </g>
</svg>
